{
  "totalPage": 100,
  "totalCount": 100,
  "currentPage": 1,
  "limit": 10,
  "data": [
    { "id": 1, "name": "가", "age": 25, "email": "윤@aaa.com", "num": 2 },
    {
      "id": 7,
      "name": "나",
      "age": 11,
      "email": "하@aaa.com",
      "date": "2013-12-13"
    },
    { "id": 116, "name": "다", "age": 28, "email": "진@aaa.com" },
    { "id": 117, "name": "라", "age": 30, "email": "라@aaa.com" },
    { "id": 118, "name": "마", "age": 22, "email": "마@aaa.com" },
    { "id": 119, "name": "바", "age": 35, "email": "바@aaa.com" },
    { "id": 120, "name": "사", "age": 19, "email": "사@aaa.com" },
    { "id": 121, "name": "아", "age": 42, "email": "아@aaa.com" },
    { "id": 122, "name": "자", "age": 27, "email": "자@aaa.com" },
    { "id": 123, "name": "차", "age": 31, "email": "차@aaa.com" },
    { "id": 124, "name": "카", "age": 29, "email": "카@aaa.com" },
    { "id": 125, "name": "타", "age": 24, "email": "타@aaa.com" },
    { "id": 126, "name": "파", "age": 36, "email": "파@aaa.com" },
    { "id": 127, "name": "하", "age": 33, "email": "하@aaa.com" },
    { "id": 128, "name": "거", "age": 26, "email": "거@aaa.com" },
    { "id": 129, "name": "너", "age": 28, "email": "너@aaa.com" },
    { "id": 130, "name": "더", "age": 23, "email": "더@aaa.com" },
    { "id": 131, "name": "러", "age": 37, "email": "러@aaa.com" },
    { "id": 132, "name": "머", "age": 40, "email": "머@aaa.com" },
    { "id": 133, "name": "버", "age": 32, "email": "버@aaa.com" },
    { "id": 134, "name": "서", "age": 34, "email": "서@aaa.com" },
    { "id": 135, "name": "어", "age": 31, "email": "어@aaa.com" },
    { "id": 136, "name": "저", "age": 28, "email": "저@aaa.com" },
    { "id": 137, "name": "처", "age": 30, "email": "처@aaa.com" },
    { "id": 138, "name": "터", "age": 25, "email": "터@aaa.com" },
    { "id": 139, "name": "퍼", "age": 22, "email": "퍼@aaa.com" },
    { "id": 140, "name": "호", "age": 29, "email": "호@aaa.com" },
    { "id": 141, "name": "걸", "age": 27, "email": "걸@aaa.com" },
    { "id": 142, "name": "널", "age": 26, "email": "널@aaa.com" },
    { "id": 143, "name": "달", "age": 23, "email": "달@aaa.com" },
    { "id": 144, "name": "랄", "age": 31, "email": "랄@aaa.com" },
    { "id": 145, "name": "말", "age": 38, "email": "말@aaa.com" },
    { "id": 146, "name": "발", "age": 41, "email": "발@aaa.com" },
    { "id": 147, "name": "살", "age": 33, "email": "살@aaa.com" },
    { "id": 148, "name": "알", "age": 30, "email": "알@aaa.com" },
    { "id": 149, "name": "잘", "age": 35, "email": "잘@aaa.com" },
    { "id": 150, "name": "찰", "age": 28, "email": "찰@aaa.com" },
    { "id": 151, "name": "칼", "age": 24, "email": "칼@aaa.com" },
    { "id": 152, "name": "탈", "age": 39, "email": "탈@aaa.com" },
    { "id": 153, "name": "팔", "age": 37, "email": "팔@aaa.com" },
    { "id": 154, "name": "할", "age": 32, "email": "할@aaa.com" },
    { "id": 155, "name": "갈", "age": 28, "email": "갈@aaa.com" },
    { "id": 156, "name": "걸", "age": 26, "email": "걸@aaa.com" },
    { "id": 157, "name": "널", "age": 23, "email": "널@aaa.com" },
    { "id": 158, "name": "달", "age": 31, "email": "달@aaa.com" },
    { "id": 159, "name": "랄", "age": 30, "email": "랄@aaa.com" },
    { "id": 160, "name": "말", "age": 29, "email": "말@aaa.com" },
    { "id": 161, "name": "발", "age": 27, "email": "발@aaa.com" },
    { "id": 162, "name": "살", "age": 25, "email": "살@aaa.com" },
    { "id": 163, "name": "알", "age": 22, "email": "알@aaa.com" },
    { "id": 164, "name": "잘", "age": 28, "email": "잘@aaa.com" },
    { "id": 165, "name": "찰", "age": 33, "email": "찰@aaa.com" },
    { "id": 166, "name": "칼", "age": 31, "email": "칼@aaa.com" },
    { "id": 167, "name": "탈", "age": 26, "email": "탈@aaa.com" },
    { "id": 168, "name": "팔", "age": 24, "email": "팔@aaa.com" },
    { "id": 169, "name": "할", "age": 29, "email": "할@aaa.com" },
    { "id": 170, "name": "갈", "age": 27, "email": "갈@aaa.com" },
    { "id": 171, "name": "걸", "age": 26, "email": "걸@aaa.com" },
    { "id": 172, "name": "널", "age": 23, "email": "널@aaa.com" },
    { "id": 173, "name": "달", "age": 31, "email": "달@aaa.com" },
    { "id": 174, "name": "랄", "age": 30, "email": "랄@aaa.com" },
    { "id": 175, "name": "말", "age": 29, "email": "말@aaa.com" },
    { "id": 176, "name": "발", "age": 27, "email": "발@aaa.com" },
    { "id": 177, "name": "살", "age": 25, "email": "살@aaa.com" },
    { "id": 178, "name": "알", "age": 22, "email": "알@aaa.com" },
    { "id": 179, "name": "잘", "age": 28, "email": "잘@aaa.com" },
    { "id": 180, "name": "찰", "age": 33, "email": "찰@aaa.com" },
    { "id": 181, "name": "칼", "age": 31, "email": "칼@aaa.com" },
    { "id": 182, "name": "탈", "age": 26, "email": "탈@aaa.com" },
    { "id": 183, "name": "팔", "age": 24, "email": "팔@aaa.com" },
    { "id": 184, "name": "할", "age": 29, "email": "할@aaa.com" },
    { "id": 185, "name": "갈", "age": 27, "email": "갈@aaa.com" },
    { "id": 186, "name": "걸", "age": 26, "email": "걸@aaa.com" },
    { "id": 187, "name": "널", "age": 23, "email": "널@aaa.com" },
    { "id": 188, "name": "달", "age": 31, "email": "달@aaa.com" },
    { "id": 189, "name": "랄", "age": 30, "email": "랄@aaa.com" },
    { "id": 190, "name": "말", "age": 29, "email": "말@aaa.com" },
    { "id": 191, "name": "발", "age": 27, "email": "발@aaa.com" },
    { "id": 192, "name": "살", "age": 25, "email": "살@aaa.com" },
    { "id": 193, "name": "알", "age": 22, "email": "알@aaa.com" },
    { "id": 194, "name": "잘", "age": 28, "email": "잘@aaa.com" },
    { "id": 195, "name": "찰", "age": 33, "email": "찰@aaa.com" },
    { "id": 196, "name": "칼", "age": 31, "email": "칼@aaa.com" },
    { "id": 197, "name": "탈", "age": 26, "email": "탈@aaa.com" },
    { "id": 198, "name": "팔", "age": 24, "email": "팔@aaa.com" },
    { "id": 199, "name": "할", "age": 29, "email": "할@aaa.com" },
    { "id": 200, "name": "갈", "age": 27, "email": "갈@aaa.com" },
    { "id": 201, "name": "걸", "age": 26, "email": "걸@aaa.com" },
    { "id": 202, "name": "널", "age": 23, "email": "널@aaa.com" },
    { "id": 203, "name": "달", "age": 31, "email": "달@aaa.com" },
    { "id": 204, "name": "랄", "age": 30, "email": "랄@aaa.com" },
    { "id": 205, "name": "말", "age": 29, "email": "말@aaa.com" }
  ]
}
